Basic Plotting • dataviz
…
Examine data

data_ala
#> # A tibble: 273 × 3
#>    Participant Valence    RT
#>          <dbl> <fct>   <dbl>
#>  1           1 Happy   0.871
#>  2           1 Neutral 0.880
#>  3           1 Sad     0.849
#>  4           2 Happy   0.891
#>  5           2 Neutral 0.925
#>  6           2 Sad     0.958
#>  7           3 Happy   0.588
#>  8           3 Neutral 0.682
#>  9           3 Sad     0.828
#> 10           4 Happy   0.804
#> # ℹ 263 more rows
…
